//table layout:
//Table: (width; height), pocket_count, pocket_radius
Table: (600; 428.571), 4, 20
//ball layout:
//Ball: (position_x; position_y), (angle; magnitude), mass, radius, friction, (red; green; blue)
Ball: (50; 380), (45; 20), 2, 10, 0, (255; 255; 255)

